\relax 
\providecommand\HyperFirstAtBeginDocument{\AtBeginDocument}
\HyperFirstAtBeginDocument{\ifx\hyper@anchor\@undefined
\global\let\oldcontentsline\contentsline
\gdef\contentsline#1#2#3#4{\oldcontentsline{#1}{#2}{#3}}
\global\let\oldnewlabel\newlabel
\gdef\newlabel#1#2{\newlabelxx{#1}#2}
\gdef\newlabelxx#1#2#3#4#5#6{\oldnewlabel{#1}{{#2}{#3}}}
\AtEndDocument{\ifx\hyper@anchor\@undefined
\let\contentsline\oldcontentsline
\let\newlabel\oldnewlabel
\fi}
\fi}
\global\let\hyper@last\relax 
\gdef\HyperFirstAtBeginDocument#1{#1}
\providecommand\HyField@AuxAddToFields[1]{}
\@writefile{toc}{\contentsline {section}{\numberline {1}Introduction}{1}{section.1}}
\citation{JavaBeans}
\newlabel{sec:overview}{{2}{2}{RapidMiner Beans -- Overview\relax }{section.2}{}}
\@writefile{toc}{\contentsline {section}{\numberline {2}RapidMiner Beans -- Overview}{2}{section.2}}
\@writefile{toc}{\contentsline {subsection}{\numberline {2.1}JavaBeans and Parameter Annotations}{3}{subsection.2.1}}
\@writefile{toc}{\contentsline {subsection}{\numberline {2.2}Operator Documentation}{3}{subsection.2.2}}
\@writefile{toc}{\contentsline {subsection}{\numberline {2.3}Support for User-Libraries}{3}{subsection.2.3}}
\newlabel{sec:operator}{{3}{4}{Example -- A simple Operator\relax }{section.3}{}}
\@writefile{toc}{\contentsline {section}{\numberline {3}Example -- A simple Operator}{4}{section.3}}
\newlabel{sec:annotatedOperator}{{3.1}{4}{Operator Annotations\relax }{subsection.3.1}{}}
\@writefile{toc}{\contentsline {subsection}{\numberline {3.1}Operator Annotations}{4}{subsection.3.1}}
\@writefile{lof}{\contentsline {figure}{\numberline {1}{\ignorespaces A simple RapidMiner operator. Lines 4-5 do provide the {\ttfamily  @OperatorInfo} annotation, defining the name, group and tooltip-text of the operator within RapidMiner.}}{4}{figure.1}}
\newlabel{fig:operator}{{1}{4}{A simple RapidMiner operator. Lines 4-5 do provide the {\ttfamily @OperatorInfo} annotation, defining the name, group and tooltip-text of the operator within RapidMiner}{figure.1}{}}
\newlabel{sec:parameters}{{3.2}{5}{Adding Parameters with OperatorBeans\relax }{subsection.3.2}{}}
\@writefile{toc}{\contentsline {subsection}{\numberline {3.2}Adding Parameters with OperatorBeans}{5}{subsection.3.2}}
\@writefile{lof}{\contentsline {figure}{\numberline {2}{\ignorespaces A {\ttfamily  OperatorBean} example, which is a simple operator that provides JavaBean-style parameters. The OperatorBean class ensures that all parameters are set before the {\ttfamily  doWork()} method is executed.}}{5}{figure.2}}
\newlabel{fig:operatorParameter}{{2}{5}{A {\ttfamily OperatorBean} example, which is a simple operator that provides JavaBean-style parameters. The OperatorBean class ensures that all parameters are set before the {\ttfamily doWork()} method is executed}{figure.2}{}}
\citation{markdown}
\citation{markdownj}
\newlabel{sec:documentation}{{4}{6}{Writing Documentation\relax }{section.4}{}}
\@writefile{toc}{\contentsline {section}{\numberline {4}Writing Documentation}{6}{section.4}}
\@writefile{toc}{\contentsline {subsection}{\numberline {4.1}The Markdown Format }{6}{subsection.4.1}}
\@writefile{lof}{\contentsline {figure}{\numberline {3}{\ignorespaces Example markdown documentation for the example operator. The major headline is provided by underlining a line with equal characters. The {\ttfamily  *} character switches to {\em  italic} style, the back-ticks form {\ttfamily  typewrite} code.}}{7}{figure.3}}
\newlabel{fig:markdownExample}{{3}{7}{Example markdown documentation for the example operator. The major headline is provided by underlining a line with equal characters. The {\ttfamily *} character switches to {\em italic} style, the back-ticks form {\ttfamily typewrite} code}{figure.3}{}}
\@writefile{toc}{\contentsline {subsection}{\numberline {4.2}Documentation within RapidMiner}{7}{subsection.4.2}}
\@writefile{lof}{\contentsline {figure}{\numberline {4}{\ignorespaces Documentation of the {\em  Sample Operator} operator, which has been written in the {\em  Markdown} format.}}{7}{figure.4}}
\newlabel{fig:operatorDoc}{{4}{7}{Documentation of the {\em Sample Operator} operator, which has been written in the {\em Markdown} format}{figure.4}{}}
\bibstyle{ieeetr}
\bibdata{local-refs,literatur}
\bibcite{JavaBeans}{1}
\bibcite{markdown}{2}
\bibcite{markdownj}{3}
\newlabel{sec:outlook}{{5}{8}{Summary and Future Work\relax }{section.5}{}}
\@writefile{toc}{\contentsline {section}{\numberline {5}Summary and Future Work}{8}{section.5}}
\@writefile{toc}{\contentsline {paragraph}{Acknowledgements}{8}{section*.1}}
